<?xml version="1.0" encoding="UTF-8" standalone="no"?>
<svg
    xmlns:cc="http://creativecommons.org/ns#"
    xmlns:rdf="http://www.w3.org/1999/02/22-rdf-syntax-ns#"
    xmlns:svg="http://www.w3.org/2000/svg"
    xmlns="http://www.w3.org/2000/svg"
    width="311" height="311">
  <g transform="translate(0,311.00060)">
    <g transform="matrix(0.2393748,0,0,-0.2393748,0,0)">
      <path style="fill:#429acd;fill-rule:nonzero;stroke:none"
            d="M 31.8359,726.797 L 571.215,1267.25 C 613.773,1309.88 682.918,1309.88 725.637,1267.25 L 1267.08,726.797 C 1309.81,684.168 1309.94,615.047 1267.39,572.395 L 727.996,31.9766 C 685.422,-10.6523 616.273,-10.6523 573.578,31.9766 L 32.1094,572.395 C -10.5859,615.047 -10.7266,684.168 31.8359,726.797"/>
      <path style="fill:#ffffff;fill-rule:nonzero;stroke:none"
            d="M 874.348,573.711 L 517.223,573.711 C 508.164,573.711 500.828,566.371 500.828,557.316 L 500.828,496.664 C 500.828,487.629 508.164,480.277 517.223,480.277 L 873.684,480.258 C 915.852,480.258 950.273,446.379 950.273,404.301 C 950.273,362.176 915.852,328.355 873.684,328.355 L 425.453,328.355 C 406.254,328.523 389.051,335.25 375.785,346.527 C 359.395,360.418 348.906,381.262 348.906,404.414 L 348.941,406.746 L 348.941,648.984 C 348.941,691.348 382.957,725.145 424.828,725.586 L 782.027,725.586 C 791.098,725.586 798.43,732.91 798.43,741.965 L 798.43,802.609 C 798.43,811.652 791.098,818.988 782.027,818.988 L 425.566,818.988 C 383.418,818.988 348.941,852.84 348.941,894.953 C 348.941,937.023 383.418,970.867 425.566,970.867 L 873.684,970.867 C 916.059,970.867 949.848,936.895 950.273,895.012 L 950.273,650.23 C 949.863,607.875 916.262,573.711 874.348,573.711"/>
    </g>
  </g>
</svg>
