<?xml version="1.0" encoding="UTF-8" standalone="no"?>
<!-- Created with Inkscape (http://www.inkscape.org/) -->

<svg
   xmlns:dc="http://purl.org/dc/elements/1.1/"
   xmlns:cc="http://creativecommons.org/ns#"
   xmlns:rdf="http://www.w3.org/1999/02/22-rdf-syntax-ns#"
   xmlns:svg="http://www.w3.org/2000/svg"
   xmlns="http://www.w3.org/2000/svg"
   xmlns:xlink="http://www.w3.org/1999/xlink"
   xmlns:sodipodi="http://sodipodi.sourceforge.net/DTD/sodipodi-0.dtd"
   xmlns:inkscape="http://www.inkscape.org/namespaces/inkscape"
   width="1000"
   height="1030.8827"
   id="svg2"
   version="1.1"
   inkscape:version="0.48.2 r9819"
   sodipodi:docname="New document 1">
  <defs
     id="defs4">
    <linearGradient
       id="linearGradient3182">
      <stop
         style="stop-color:#fa9100;stop-opacity:1"
         offset="0"
         id="stop3184" />
      <stop
         id="stop3186"
         offset="0.5"
         style="stop-color:#fd991e;stop-opacity:1" />
      <stop
         style="stop-color:#ffa03c;stop-opacity:1"
         offset="1"
         id="stop3188" />
    </linearGradient>
    <linearGradient
       id="linearGradient3172">
      <stop
         id="stop3174"
         offset="0"
         style="stop-color:#fba733;stop-opacity:1" />
      <stop
         style="stop-color:#fdad4b;stop-opacity:1"
         offset="0.5"
         id="stop3176" />
      <stop
         id="stop3178"
         offset="1"
         style="stop-color:#ffb363;stop-opacity:1" />
    </linearGradient>
    <linearGradient
       id="linearGradient3162">
      <stop
         style="stop-color:#ffa03c;stop-opacity:1"
         offset="0"
         id="stop3164" />
      <stop
         id="stop3166"
         offset="0.5"
         style="stop-color:#fc981e;stop-opacity:1" />
      <stop
         style="stop-color:#fa9100;stop-opacity:1"
         offset="1"
         id="stop3168" />
    </linearGradient>
    <linearGradient
       id="linearGradient3152">
      <stop
         id="stop3154"
         offset="0"
         style="stop-color:#fba733;stop-opacity:1" />
      <stop
         style="stop-color:#fdad4b;stop-opacity:1"
         offset="0.5"
         id="stop3156" />
      <stop
         id="stop3158"
         offset="1"
         style="stop-color:#ffb363;stop-opacity:1" />
    </linearGradient>
    <linearGradient
       id="linearGradient3142">
      <stop
         style="stop-color:#fa9100;stop-opacity:1"
         offset="0"
         id="stop3144" />
      <stop
         id="stop3146"
         offset="0.5"
         style="stop-color:#fc9716;stop-opacity:1" />
      <stop
         style="stop-color:#fe9c2d;stop-opacity:1"
         offset="1"
         id="stop3148" />
    </linearGradient>
    <linearGradient
       inkscape:collect="always"
       id="linearGradient3132">
      <stop
         style="stop-color:#feb056;stop-opacity:1"
         offset="0"
         id="stop3134" />
      <stop
         style="stop-color:#ffb363;stop-opacity:1"
         offset="1"
         id="stop3136" />
    </linearGradient>
    <linearGradient
       inkscape:collect="always"
       id="linearGradient3124">
      <stop
         style="stop-color:#ffc282;stop-opacity:1"
         offset="0"
         id="stop3126" />
      <stop
         style="stop-color:#fec079;stop-opacity:1"
         offset="1"
         id="stop3128" />
    </linearGradient>
    <linearGradient
       id="linearGradient3116">
      <stop
         style="stop-color:#fba733;stop-opacity:1"
         offset="0"
         id="stop3118" />
      <stop
         id="stop3120"
         offset="0.5"
         style="stop-color:#fdac45;stop-opacity:1" />
      <stop
         style="stop-color:#feb057;stop-opacity:1"
         offset="1"
         id="stop3122" />
    </linearGradient>
    <linearGradient
       id="linearGradient3106">
      <stop
         id="stop3108"
         offset="0"
         style="stop-color:#383838;stop-opacity:1" />
      <stop
         style="stop-color:#1c1c1c;stop-opacity:1"
         offset="0.5"
         id="stop3110" />
      <stop
         id="stop3112"
         offset="1"
         style="stop-color:#000000;stop-opacity:1" />
    </linearGradient>
    <linearGradient
       inkscape:collect="always"
       id="linearGradient3096">
      <stop
         style="stop-color:#595959;stop-opacity:1"
         offset="0"
         id="stop3098" />
      <stop
         style="stop-color:#545454;stop-opacity:1"
         offset="1"
         id="stop3100" />
    </linearGradient>
    <linearGradient
       id="linearGradient3086">
      <stop
         style="stop-color:#323232;stop-opacity:1"
         offset="0"
         id="stop3088" />
      <stop
         id="stop3094"
         offset="0.5"
         style="stop-color:#2d2d2d;stop-opacity:1" />
      <stop
         style="stop-color:#262626;stop-opacity:1"
         offset="1"
         id="stop3090" />
    </linearGradient>
    <linearGradient
       inkscape:collect="always"
       xlink:href="#linearGradient3086"
       id="linearGradient3092"
       x1="-2452.8289"
       y1="5222.5693"
       x2="-2452.8289"
       y2="5682.6694"
       gradientUnits="userSpaceOnUse" />
    <linearGradient
       inkscape:collect="always"
       xlink:href="#linearGradient3096"
       id="linearGradient3102"
       x1="-1470.4001"
       y1="3783.6042"
       x2="-1470.4001"
       y2="3991.4062"
       gradientUnits="userSpaceOnUse" />
    <linearGradient
       inkscape:collect="always"
       xlink:href="#linearGradient3106"
       id="linearGradient3104"
       x1="-2133.3818"
       y1="3895.8875"
       x2="-2133.3818"
       y2="5669.856"
       gradientUnits="userSpaceOnUse" />
    <linearGradient
       inkscape:collect="always"
       xlink:href="#linearGradient3116"
       id="linearGradient3114"
       x1="-1219.125"
       y1="5668.2246"
       x2="-1219.125"
       y2="3966.5112"
       gradientUnits="userSpaceOnUse" />
    <linearGradient
       inkscape:collect="always"
       xlink:href="#linearGradient3124"
       id="linearGradient3130"
       x1="-1136.0469"
       y1="3393.6067"
       x2="-1136.0469"
       y2="3965.4092"
       gradientUnits="userSpaceOnUse" />
    <linearGradient
       inkscape:collect="always"
       xlink:href="#linearGradient3132"
       id="linearGradient3138"
       x1="-657.63708"
       y1="4015.9629"
       x2="-657.63708"
       y2="3394.9712"
       gradientUnits="userSpaceOnUse" />
    <linearGradient
       inkscape:collect="always"
       xlink:href="#linearGradient3142"
       id="linearGradient3140"
       x1="-649.875"
       y1="5670.4189"
       x2="-649.875"
       y2="3989.613"
       gradientUnits="userSpaceOnUse" />
    <linearGradient
       inkscape:collect="always"
       xlink:href="#linearGradient3152"
       id="linearGradient3150"
       x1="-2810.125"
       y1="6397.3008"
       x2="-2810.125"
       y2="5894.6294"
       gradientUnits="userSpaceOnUse" />
    <linearGradient
       inkscape:collect="always"
       xlink:href="#linearGradient3162"
       id="linearGradient3160"
       x1="-1441.875"
       y1="5896.2739"
       x2="-1441.875"
       y2="6394.4463"
       gradientUnits="userSpaceOnUse" />
    <linearGradient
       inkscape:collect="always"
       xlink:href="#linearGradient3172"
       id="linearGradient3170"
       x1="-1219.125"
       y1="6990.8091"
       x2="-1219.125"
       y2="5897.6436"
       gradientUnits="userSpaceOnUse" />
    <linearGradient
       inkscape:collect="always"
       xlink:href="#linearGradient3182"
       id="linearGradient3180"
       x1="-1137.678"
       y1="6995.542"
       x2="-1137.678"
       y2="5895.9121"
       gradientUnits="userSpaceOnUse" />
    <linearGradient
       inkscape:collect="always"
       xlink:href="#linearGradient3096"
       id="linearGradient3210"
       gradientUnits="userSpaceOnUse"
       x1="-1470.4001"
       y1="3783.6042"
       x2="-1470.4001"
       y2="3991.4062" />
    <linearGradient
       inkscape:collect="always"
       xlink:href="#linearGradient3162"
       id="linearGradient3212"
       gradientUnits="userSpaceOnUse"
       x1="-1441.875"
       y1="5896.2739"
       x2="-1441.875"
       y2="6394.4463" />
    <linearGradient
       inkscape:collect="always"
       xlink:href="#linearGradient3152"
       id="linearGradient3214"
       gradientUnits="userSpaceOnUse"
       x1="-2810.125"
       y1="6397.3008"
       x2="-2810.125"
       y2="5894.6294" />
    <linearGradient
       inkscape:collect="always"
       xlink:href="#linearGradient3182"
       id="linearGradient3216"
       gradientUnits="userSpaceOnUse"
       x1="-1137.678"
       y1="6995.542"
       x2="-1137.678"
       y2="5895.9121" />
    <linearGradient
       inkscape:collect="always"
       xlink:href="#linearGradient3172"
       id="linearGradient3218"
       gradientUnits="userSpaceOnUse"
       x1="-1219.125"
       y1="6990.8091"
       x2="-1219.125"
       y2="5897.6436" />
    <linearGradient
       inkscape:collect="always"
       xlink:href="#linearGradient3142"
       id="linearGradient3220"
       gradientUnits="userSpaceOnUse"
       x1="-649.875"
       y1="5670.4189"
       x2="-649.875"
       y2="3989.613" />
    <linearGradient
       inkscape:collect="always"
       xlink:href="#linearGradient3132"
       id="linearGradient3222"
       gradientUnits="userSpaceOnUse"
       x1="-657.63708"
       y1="4015.9629"
       x2="-657.63708"
       y2="3394.9712" />
    <linearGradient
       inkscape:collect="always"
       xlink:href="#linearGradient3124"
       id="linearGradient3224"
       gradientUnits="userSpaceOnUse"
       x1="-1136.0469"
       y1="3393.6067"
       x2="-1136.0469"
       y2="3965.4092" />
    <linearGradient
       inkscape:collect="always"
       xlink:href="#linearGradient3116"
       id="linearGradient3226"
       gradientUnits="userSpaceOnUse"
       x1="-1219.125"
       y1="5668.2246"
       x2="-1219.125"
       y2="3966.5112" />
    <linearGradient
       inkscape:collect="always"
       xlink:href="#linearGradient3106"
       id="linearGradient3228"
       gradientUnits="userSpaceOnUse"
       x1="-2133.3818"
       y1="3895.8875"
       x2="-2133.3818"
       y2="5669.856" />
    <linearGradient
       inkscape:collect="always"
       xlink:href="#linearGradient3086"
       id="linearGradient3230"
       gradientUnits="userSpaceOnUse"
       x1="-2452.8289"
       y1="5222.5693"
       x2="-2452.8289"
       y2="5682.6694" />
  </defs>
  <sodipodi:namedview
     id="base"
     pagecolor="#ffffff"
     bordercolor="#666666"
     borderopacity="1.0"
     inkscape:pageopacity="0.0"
     inkscape:pageshadow="2"
     inkscape:zoom="0.25052705"
     inkscape:cx="2436.4253"
     inkscape:cy="636.72661"
     inkscape:document-units="px"
     inkscape:current-layer="layer1"
     showgrid="false"
     fit-margin-left="0.5"
     fit-margin-bottom="0.5"
     fit-margin-top="0.5"
     fit-margin-right="0.5"
     inkscape:window-width="1920"
     inkscape:window-height="1028"
     inkscape:window-x="-8"
     inkscape:window-y="-8"
     inkscape:window-maximized="1">
    <inkscape:grid
       type="xygrid"
       id="grid2996"
       empspacing="5"
       visible="true"
       enabled="true"
       snapvisiblegridlinesonly="true" />
  </sodipodi:namedview>
  <metadata
     id="metadata7">
    <rdf:RDF>
      <cc:Work
         rdf:about="">
        <dc:format>image/svg+xml</dc:format>
        <dc:type
           rdf:resource="http://purl.org/dc/dcmitype/StillImage" />
        <dc:title></dc:title>
      </cc:Work>
    </rdf:RDF>
  </metadata>
  <g
     inkscape:label="Layer 1"
     inkscape:groupmode="layer"
     id="layer1"
     transform="translate(3783.5,-6038.2745)">
    <g
       id="g3190"
       transform="matrix(0.27573834,0,0,0.27573834,-2739.8819,5119.5574)">
      <path
         style="fill:#000000;fill-opacity:1;stroke:none"
         d="m -3745,4802.6572 c -21.9751,0 -38,-15.0621 -38,-38 l 0,-513.5014 c 0,-47.79 38.0544,-83.4986 85.4975,-83.4986 l 192.0056,0 c 58.6429,0 91.4969,38.9871 91.4969,85 0,49.2287 -43.1054,82 -82,82 l -101,0 0,429 c 0,23.3522 -14.7976,39 -39,39 z"
         id="path3042"
         inkscape:connector-curvature="0"
         sodipodi:nodetypes="ccccccccccc" />
      <path
         style="fill:#000000;fill-opacity:1;stroke:none"
         d="m -3230,4800.6572 c -49.7287,0 -82,-41.5956 -82,-78.702 l 0,-663.298 c 0,-17.323 11.8505,-35 35,-35 l 116.9145,0 c 20.0606,0 33.0855,17.8382 33.0855,33.3354 l 0,155.6646 130,0 c 33.6527,0 36.6669,11.8186 36.6669,17.2499 0,8.8833 -4.787,14.7545 -8.8374,20.9228 l -68.9496,98.7119 c -17.8047,23.8351 -34.4812,30.1154 -60.8799,30.1154 l -28,0 0,255 102.8869,0 c 38.4288,0 80.1131,31.7259 80.1131,83 0,47.4268 -37.5747,83 -83,83 z"
         id="path3044"
         inkscape:connector-curvature="0"
         sodipodi:nodetypes="cccccccccccccccccc" />
      <path
         style="fill:#000000;fill-opacity:1;stroke:none"
         d="m -2736,4800.6572 c -40.6108,0 -82,-31.3355 -82,-82 l 0,-762.6513 c 0,-16.1192 11.8121,-35.3487 34.9953,-35.3487 l 113.0047,0 c 24.9154,0 38,17.2458 38,38 l 0,676 193,0 c 21.6981,0 31.5795,7.3416 31.5795,17.1095 0,8.0042 -5.3468,15.2931 -10.7185,23.4394 l -65.9599,94.1107 c -13.8745,19.6158 -29.2352,31.3404 -54.9011,31.3404 z"
         id="path3046"
         inkscape:connector-curvature="0"
         sodipodi:nodetypes="ccccccccccccc" />
      <path
         style="fill:#000000;fill-opacity:1;stroke:none"
         d="m -2624,5753.6572 c -60.8515,0 -112,-31.6884 -112,-96 0,-36.0455 15.7877,-70.0187 33,-97 l 1120,-1762 c 28.0684,-44.9677 76.5687,-87.6443 125.9918,-87.6443 57.4345,0 81.0082,53.8285 81.0082,101.6443 l 0,727 c 0,73.0566 -16.2287,112.0699 -50,166 l -615,965 c -42.5556,62.2223 -78.8479,83 -180,83 z"
         id="path3048"
         inkscape:connector-curvature="0"
         sodipodi:nodetypes="ccccccccccc" />
      <path
         style="fill:url(#linearGradient3210);fill-opacity:1;stroke:none"
         d="m -1442,3993.6572 0,-154 c 0,-28.2757 -8.7403,-56.0799 -29.2329,-56.0799 -16.731,0 -35.61,20.1496 -47.0849,39.4878 l -43.3112,68.1191 -0.1002,140.1727 z"
         id="path3054"
         inkscape:connector-curvature="0"
         sodipodi:nodetypes="ccccccc" />
      <path
         style="fill:#fa9100;fill-opacity:1;stroke:none"
         d="m -2744.1797,6472.6572 c -80.3424,0 -135.8203,-69.5851 -135.8203,-135 l 0,-367 c 0,-72.1305 59.5726,-136 136,-136 l 1233,0 c 74.0117,0 135,62.6907 135,135 l 0,367 c 0,76.3662 -63.629,136 -136,136 z"
         id="path3056"
         inkscape:connector-curvature="0"
         sodipodi:nodetypes="ccccccccc" />
      <path
         style="fill:url(#linearGradient3212);stroke:none"
         d="m -2407,5893.6572 890,0 c 54.8011,0 75,40.1323 75,75 l 0,365 c 0,37.8057 -34.0173,62 -71.7821,62 l -893.2179,0 -227,-227 z"
         id="path3060"
         inkscape:connector-curvature="0"
         sodipodi:nodetypes="cccccccc" />
      <path
         style="fill:url(#linearGradient3214);stroke:none"
         d="m -2407,6395.6572 -334,0 c -40.0094,0 -69,-33.9392 -69,-69 l 0,-363 c 0,-36.5086 30.7904,-70 70,-70 l 333,0 z"
         id="path3058"
         inkscape:connector-curvature="0"
         sodipodi:nodetypes="ccccccc" />
      <path
         style="fill:#fa9100;fill-opacity:1;stroke:none"
         d="m -1154.5031,7068.6572 c -76.9863,0 -135.4969,-65.4643 -135.4969,-137.7466 l 0,-960.2534 c 0,-68.9997 57.0997,-136 136,-136 l 859,0 c 71.64235,0 135,60.6736 135,135 l 0,364 c 0,84.4695 -67.66857,139 -134.25593,139 l -288.74407,0 0,457 c 0,83.3756 -67.32968,139 -131.75905,139 z"
         id="path3062"
         inkscape:connector-curvature="0"
         sodipodi:nodetypes="cccccccccccc" />
      <path
         style="fill:url(#linearGradient3216);stroke:none"
         d="m -1014,6995.4797 364,0 0,-198 0,-399 358.67483,0 c 36.28932,0 65.32517,-33.6531 65.32517,-70.1191 l 0,-363.8809 c 0,-37.1858 -33.21805,-69.8225 -67,-69.8225 l -721,0 -123.553,216.8225 0,770 z"
         id="path3066"
         inkscape:connector-curvature="0"
         sodipodi:nodetypes="cccccccccccc" />
      <path
         style="fill:url(#linearGradient3218);stroke:none"
         d="m -1014,6992.6572 -136,0 c -33.4167,0 -69,-27.1098 -69,-69 l 0,-964 c 0,-32.6606 28.7882,-65 69,-65 l 136,0 z"
         id="path3064"
         inkscape:connector-curvature="0"
         sodipodi:nodetypes="ccccccc" />
      <path
         style="fill:#fa9100;fill-opacity:1;stroke:none"
         d="m -1151,5748.6572 c -78.878,0 -139,-62.5582 -139,-139 l 0,-2139.9393 c 0,-70.5884 59.7809,-136.0607 135,-136.0607 l 437,0 c 75.36504,0 135,64.9761 135,136 l 0,2143 c 0,69.0807 -56.99568,136 -136,136 z"
         id="path3068"
         inkscape:connector-curvature="0"
         sodipodi:nodetypes="ccccccccc" />
      <path
         style="fill:url(#linearGradient3220);stroke:none"
         d="m -650,4017.6572 0,1654 -364,0 -123,-123 0,-1860 z"
         id="path3076"
         inkscape:connector-curvature="0"
         sodipodi:nodetypes="cccccc" />
      <path
         style="fill:url(#linearGradient3222);fill-opacity:1;stroke:none"
         d="m -1014,3393.6572 297,0 c 36.91161,0 67,31.7408 67,67 l 0,557 c -117.20055,-20.2439 -259.6572,-41.5968 -364,-50 l -146,-339 z"
         id="path3074"
         inkscape:connector-curvature="0"
         sodipodi:nodetypes="ccccccc" />
      <path
         style="fill:url(#linearGradient3224);fill-opacity:1;stroke:none"
         d="m -1219,3954.6572 0,-493 c 0,-35.5212 29.0167,-68 68,-68 l 137,0 0,574 -121,69.8594 z"
         id="path3072"
         inkscape:connector-curvature="0"
         sodipodi:nodetypes="ccccccc" />
      <path
         style="fill:url(#linearGradient3226);stroke:none"
         d="m -1014,5671.6572 -137.125,0 c -35.8803,0 -67.875,-30.0411 -67.875,-68 l 0,-1649.4918 c 62.8532,2.2773 136.6667,6.7848 205,13.4918 z"
         id="path3070"
         inkscape:connector-curvature="0"
         sodipodi:nodetypes="cccccc" />
      <path
         style="fill:url(#linearGradient3228);stroke:none"
         d="m -2410,5681.6572 225,0 c 63.8145,0 98.8979,-66.701 127.9752,-113.5549 l 577.527,-905.9427 C -1447.556,4610.651 -1442,4583.2572 -1442,4520.6572 l 0,-527 c -38.7093,-34.8581 -78.6945,-68.95 -119.629,-102.473 l -848.371,1330.473 -120,367 z"
         id="path3052"
         inkscape:connector-curvature="0"
         sodipodi:nodetypes="cccccccccc" />
      <path
         style="fill:url(#linearGradient3230);fill-opacity:1;stroke:none"
         d="m -2410,5681.6572 -217.2727,0 c -30.8799,0 -43.2114,-12.4676 -43.2114,-29.1984 0,-20.1454 14.6968,-43.7354 24.085,-58.5596 L -2410,5221.6572 z"
         id="path3050"
         inkscape:connector-curvature="0"
         sodipodi:nodetypes="cccccc" />
    </g>
  </g>
</svg>
